[
  {
  "pk": "UA",
  "model": "address.country",
  "fields": {
    "iso_3166_1_a3": "UKR",
    "iso_3166_1_numeric": "804",
    "printable_name": "Ukraine",
    "name": "Ukraine",
    "display_order": 0,
    "is_shipping_country": 1
    }
  }
]
